-1
-117
142
-163
-8
55
51
-25
127
31
-47
16
-193
-119
53
182
61
47
-177
4
179
144
47
-128
-169
-91
-39
88
166
14
123
-113
92
99
-13
6
-168
-117
-8
-63
-48
-15
-37
-199
33
38
-193
-48
-71
-84
-9
147
17
50
197
-122
-138
-151
133
-179
-67
128
-114
-174
90
-157
144
36
51
-137
88
-102
-6
133
-22
48
78
-140
104
-87
165
-95
10
-47
-21
-45
58
153
165
-187
152
27
-174
-190
74
-126
-61
-60
139
-127
180
-12
-186
-50
-189
-30
32
167
-95
-123
-41
-184
87
-120
127
88
10
-136
-50
187
-176
-17
-19
46
70
53
-190
25
-131
-110
20
192
-161
-86
-82
165
-20
-13
52
-118
-193
147
-29
-180
165
132
-127
188
102
133
-29
-71
165
-80
192
-53
-81
84
52
160
-120
6
-95
49
-4
-115
186
-50
-81
-118
-15
67
-115
-84
81
126
-20
-155
107
-51
61
-102
140
121
-62
-163
51
11
174
149
104
36
172
173
43
4
-114
-105
-143
66
-151
164
-122
-38
-102
13
-121
78
-38
138
173
-56
-108
156
143
53
-161
-20
-133
-46
22
-86
-97
17
-186
-158
160
-52
199
41
33
-112
-31
135
-36
198
58
-193
-150
-170
91
-43
34
171
-53
-46
40
-152
6
109
29
65
0
30
-118
-40
131
-154
64
177
-97
-123
-55
26
-105
162
-42
52
-31
86
-44
197
97
-41
134
152
-148
140
158
117
77
13
6
-119
5
186
-15
102
-37
-21
46
-145
38
86
49
-197
-64
-7
40
-128
-174
-136
-55
-82
98
93
71
186
79
138
-150
-100
-82
-87
32
93
135
187
-169
88
123
5
-16
32
-59
45
168
127
-22
55
-178
-190
174
-11
-72
98
-52
-188
142
-136
-136
6
-163
67
49
141
126
77
127
96
3
-37
51
-96
-159
-147
178
-192
161
15
-195
30
-23
111
-164
42
74
-142
-100
-151
177
71
95
-146
57
139
-11
109
-14
192
-171
-80
-175
152
-124
52
13
115
-97
126
119
-198
162
173
6
-31
100
-17
142
40
-50
129
93
-57
-165
87
104
131
-109
-102
-98
-24
-91
-195
-120
-7
-107
-109
-32
36
15
-9
-43
46
-155
-18
-165
41
-93
132
-159
-126
-108
-120
110
-49
96
-183
-35
-150
54
-84
182
-194
134
76
-3
182
-77
38
108
180
2
-168
162
-1
104
-56
127
44
140
-95
-156
185
60
-162
-19
134
-36
-41
89
-143
-12
44
-125
-137
-29
73
-117
40
143
107
21
51
196
-4
18
-196
-64
90
97
-106
-100
-10
-103
119
133
-103
-92
3